AT4BR_Exercises_6_Maria_Koziarz_10.04
…
1) Load the “iris” dataset.

data("iris")

paged_table(iris)

2) Transform it to longer

iris_long<- iris %>%
  tidyr::pivot_longer(cols= -Species, names_to = "Trait", values_to = "Size")

print(iris_long)

# A tibble: 600 × 3
   Species Trait         Size
   <fct>   <chr>        <dbl>
 1 setosa  Sepal.Length   5.1
 2 setosa  Sepal.Width    3.5
 3 setosa  Petal.Length   1.4
 4 setosa  Petal.Width    0.2
 5 setosa  Sepal.Length   4.9
 6 setosa  Sepal.Width    3  
 7 setosa  Petal.Length   1.4
 8 setosa  Petal.Width    0.2
 9 setosa  Sepal.Length   4.7
10 setosa  Sepal.Width    3.2
# ℹ 590 more rows
…
